{
    "": [
        {
            "label": "materiel",
            "pattern": "barette pc portable ddr3 1866 MHZ 2go"
        },
        {
            "label": "materiel",
            "pattern": "adaptateur USB 2.0 TO SATA IDE"
        },
        {
            "label": "materiel",
            "pattern": "Adaptateur display port"
        },
        {
            "label": "materiel",
            "pattern": "Adaptateur HDMI/VGA"
        },
        {
            "label": "materiel",
            "pattern": "Adaptateur paralelle ethernet"
        },
        {
            "label": "materiel",
            "pattern": "Adaptateur paralelle USB"
        },
        {
            "label": "materiel",
            "pattern": "Afficheur PC Portable DELL"
        },
        {
            "label": "materiel",
            "pattern": "Afficheur slim 13.3''"
        },
        {
            "label": "materiel",
            "pattern": "Barette DDR3 4 G PC Portable"
        },
        {
            "label": "materiel",
            "pattern": "Barette m\u00e9moire 8 G"
        },
        {
            "label": "materiel",
            "pattern": "barette memoire ddr3 2Go"
        },
        {
            "label": "materiel",
            "pattern": "Batterie d'origine toshiba"
        },
        {
            "label": "materiel",
            "pattern": "Batterie Dell inspiron"
        },
        {
            "label": "materiel",
            "pattern": "Batterie HP"
        },
        {
            "label": "materiel",
            "pattern": "Batterie NP-BN1 Sony"
        },
        {
            "label": "materiel",
            "pattern": "Batterie PC portable HP Probook 650"
        },
        {
            "label": "materiel",
            "pattern": "Bloc Alimentation 600 W"
        },
        {
            "label": "materiel",
            "pattern": "bloc alimentation 600 w"
        },
        {
            "label": "materiel",
            "pattern": "Bloc d'alimentation ATX 450 W 24 Pins"
        },
        {
            "label": "materiel",
            "pattern": "Boite Alimentation DELL Optiplex 3040"
        },
        {
            "label": "materiel",
            "pattern": "BOITIER PC STANDARD VIDE"
        },
        {
            "label": "materiel",
            "pattern": "BOITIER PC STANDARD VIDE"
        },
        {
            "label": "materiel",
            "pattern": "Cable alimentation disque SATA"
        },
        {
            "label": "materiel",
            "pattern": "Cable Alimentation pour onduleur"
        },
        {
            "label": "materiel",
            "pattern": "Cable DATA SATA"
        },
        {
            "label": "materiel",
            "pattern": "cable HDMI longueur 15m"
        },
        {
            "label": "materiel",
            "pattern": "cable HDMI longueur 3m"
        },
        {
            "label": "materiel",
            "pattern": "cable HDMI longueur 5m"
        },
        {
            "label": "materiel",
            "pattern": "Cable reseau 5m"
        },
        {
            "label": "materiel",
            "pattern": "Cable Reseau de 1m"
        },
        {
            "label": "materiel",
            "pattern": "Cable Reseau de 2m"
        },
        {
            "label": "materiel",
            "pattern": "Cable Reseau de 3 m"
        },
        {
            "label": "materiel",
            "pattern": "cable sata"
        },
        {
            "label": "materiel",
            "pattern": "Cable USB"
        },
        {
            "label": "materiel",
            "pattern": "Cable USB 4 Ports"
        },
        {
            "label": "materiel",
            "pattern": "Cable USB pour imprimante"
        },
        {
            "label": "materiel",
            "pattern": "Cable VGA"
        },
        {
            "label": "materiel",
            "pattern": "Cable VGA (Arrivage ORD)"
        },
        {
            "label": "materiel",
            "pattern": "Carte Graphique PCI express"
        },
        {
            "label": "materiel",
            "pattern": "CARTE MEMOIRE DDR1 1GO"
        },
        {
            "label": "materiel",
            "pattern": "CARTE MEMOIRE DDR2 1GO"
        },
        {
            "label": "materiel",
            "pattern": "CARTE MEMOIRE DDR2 2 GB"
        },
        {
            "label": "materiel",
            "pattern": "CARTE MEMOIRE DDR3 2GO"
        },
        {
            "label": "materiel",
            "pattern": "CARTE MEMOIRE DDR3 4GO"
        },
        {
            "label": "materiel",
            "pattern": "CARTE MERE ASROCK H61M-VG3"
        },
        {
            "label": "materiel",
            "pattern": "carte mere H110 LGA 1151 DDR3L"
        },
        {
            "label": "materiel",
            "pattern": "Carte mere H81"
        },
        {
            "label": "materiel",
            "pattern": "carte mere H81"
        },
        {
            "label": "materiel",
            "pattern": "carte mere H81"
        },
        {
            "label": "materiel",
            "pattern": "Carte mere MSI G41 M 775"
        },
        {
            "label": "materiel",
            "pattern": "CARTE MERE SOCKET 1155 MSI Z77A-G41"
        },
        {
            "label": "materiel",
            "pattern": "Carte PCI Port Paralelle"
        },
        {
            "label": "materiel",
            "pattern": "CARTE RESEAU (DELL)"
        },
        {
            "label": "materiel",
            "pattern": "CARTE RESEAU PCI E 10/100/1000 Mbps"
        },
        {
            "label": "materiel",
            "pattern": "Carte reseau PCI expresse 2.0 1X"
        },
        {
            "label": "materiel",
            "pattern": "Carte Reseau PCI serie card"
        },
        {
            "label": "materiel",
            "pattern": "cartouche noir pour photocopieure xerox 5335"
        },
        {
            "label": "materiel",
            "pattern": "Cassette de sauvegarde"
        },
        {
            "label": "materiel",
            "pattern": "CD RW"
        },
        {
            "label": "materiel",
            "pattern": "Chargeur HP"
        },
        {
            "label": "materiel",
            "pattern": "Chargeur HP pour ordinateur portable HP"
        },
        {
            "label": "materiel",
            "pattern": "Clavier AZERTY USB avec caractere Arabe"
        },
        {
            "label": "materiel",
            "pattern": "Clavier AZERTY USB avec caractere Arabe"
        },
        {
            "label": "materiel",
            "pattern": "pattren"
        },
        {
            "label": "materiel",
            "pattern": "Clavier DELL"
        },
        {
            "label": "materiel",
            "pattern": "clavier utiliser"
        },
        {
            "label": "materiel",
            "pattern": "Coffret tournevis de marque Francais-Americain"
        },
        {
            "label": "materiel",
            "pattern": "Commutateur KVM compact 4 port"
        },
        {
            "label": "materiel",
            "pattern": "Contact cleaner wd-40"
        },
        {
            "label": "materiel",
            "pattern": "Disque Dur 320 GB SATA"
        },
        {
            "label": "materiel",
            "pattern": "Disque dur 500 GO SATA"
        },
        {
            "label": "materiel",
            "pattern": "Disque dur 500Gb Maxtor"
        },
        {
            "label": "materiel",
            "pattern": "Disque Dur Externe 1TR"
        },
        {
            "label": "materiel",
            "pattern": "Disque dur externe ADATA 1 TB"
        },
        {
            "label": "materiel",
            "pattern": "Disque Dur Externe Capacit\u00e9 500 GB 3,5''SAMSUNG"
        },
        {
            "label": "materiel",
            "pattern": "Disque dur externe portable Verbatim 1To"
        },
        {
            "label": "materiel",
            "pattern": "Disque Dur Externe TOURO 1TB"
        },
        {
            "label": "materiel",
            "pattern": "Disque dur IBM 3500"
        },
        {
            "label": "materiel",
            "pattern": "Disque dur IBM Power Systems"
        },
        {
            "label": "materiel",
            "pattern": "Disque dur IDE 160 Gbytes"
        },
        {
            "label": "materiel",
            "pattern": "disque dur interne 3.5'' 2TO"
        },
        {
            "label": "materiel",
            "pattern": "Disque dur interne 3.5''pour vid\u00e9o surveillance 3 To"
        },
        {
            "label": "materiel",
            "pattern": "Disque dur SATA 1 T"
        },
        {
            "label": "materiel",
            "pattern": "Disque Dur SATA 500 GB Toshiba Vernis"
        },
        {
            "label": "materiel",
            "pattern": "Disque dur SSD"
        },
        {
            "label": "materiel",
            "pattern": "Dlink DGS 1008MP"
        },
        {
            "label": "materiel",
            "pattern": "DVD RW"
        },
        {
            "label": "materiel",
            "pattern": "ecran 21.5'' connecteur VGA\u00a7 HDMI Type FHD"
        },
        {
            "label": "materiel",
            "pattern": "Ecran 22''"
        },
        {
            "label": "materiel",
            "pattern": "ecran 31.5'' Led Full Samsung avec cable HDMI"
        },
        {
            "label": "materiel",
            "pattern": "Ecran Acer"
        },
        {
            "label": "materiel",
            "pattern": "Ecran Acer 21.5'' Full HD"
        },
        {
            "label": "materiel",
            "pattern": "Ecran ancien"
        },
        {
            "label": "materiel",
            "pattern": "Ecran DELL"
        },
        {
            "label": "materiel",
            "pattern": "Ecran HP"
        },
        {
            "label": "materiel",
            "pattern": "Ecran plat 22'' samsung haute resolution"
        },
        {
            "label": "materiel",
            "pattern": "Ecran Samsung"
        },
        {
            "label": "materiel",
            "pattern": "Ecran Versus"
        },
        {
            "label": "materiel",
            "pattern": "Fer a Souder"
        },
        {
            "label": "materiel",
            "pattern": "Flash Disk USB 16G"
        },
        {
            "label": "materiel",
            "pattern": "Flash Disque 4 Go (Tunis)"
        },
        {
            "label": "materiel",
            "pattern": "Haut parleur"
        },
        {
            "label": "materiel",
            "pattern": "HP LTO-4 ULTRIUM 1.6 TB RW DATA CARTRIDGE"
        },
        {
            "label": "materiel",
            "pattern": "HP ULTRIUM UNIVERSAL CLEANING CARTRIDGE"
        },
        {
            "label": "materiel",
            "pattern": "Hub USB 3.0 4 ports"
        },
        {
            "label": "materiel",
            "pattern": "Lecteur - Graveur DVD"
        },
        {
            "label": "materiel",
            "pattern": "Lexteur DVD externe"
        },
        {
            "label": "materiel",
            "pattern": "Metrix Pro'skit 903-150NBS"
        },
        {
            "label": "materiel",
            "pattern": "Metrix-Digital multimetres"
        },
        {
            "label": "materiel",
            "pattern": "MICRO PROCESSEUR"
        },
        {
            "label": "materiel",
            "pattern": "Microprocesseur"
        },
        {
            "label": "materiel",
            "pattern": "Microprocesseur i3 1155"
        },
        {
            "label": "materiel",
            "pattern": "Microprocesseur i3 4eme g\u00e9n\u00e9ration"
        },
        {
            "label": "materiel",
            "pattern": "mini aspirateur"
        },
        {
            "label": "materiel",
            "pattern": "module photorecepteur xerox 5335"
        },
        {
            "label": "materiel",
            "pattern": "Onduleur"
        },
        {
            "label": "materiel",
            "pattern": "PATTE THERMIQUE GRIS ''BOITE 50 SERINGUES''"
        },
        {
            "label": "materiel",
            "pattern": "PILE CR2032 3 V"
        },
        {
            "label": "materiel",
            "pattern": "Pince a bec plat petit"
        },
        {
            "label": "materiel",
            "pattern": "Pince a circlips interieur"
        },
        {
            "label": "materiel",
            "pattern": "Pince circlips moyan"
        },
        {
            "label": "materiel",
            "pattern": "Pince coupante ACEM"
        },
        {
            "label": "materiel",
            "pattern": "Pince reseau pro"
        },
        {
            "label": "materiel",
            "pattern": "Point Acces dlink 2600"
        },
        {
            "label": "materiel",
            "pattern": "Point Acces dlink 2690"
        },
        {
            "label": "materiel",
            "pattern": "processeur core duo"
        },
        {
            "label": "materiel",
            "pattern": "Rallonge Cable USB"
        },
        {
            "label": "materiel",
            "pattern": "refroidisseur LGA1151"
        },
        {
            "label": "materiel",
            "pattern": "Repeteur Sans Fils"
        },
        {
            "label": "materiel",
            "pattern": "Repeteur WIFI N300"
        },
        {
            "label": "materiel",
            "pattern": "Souris DELL"
        },
        {
            "label": "materiel",
            "pattern": "Souris Optique 3 touche USB"
        },
        {
            "label": "materiel",
            "pattern": "souris optique HP"
        },
        {
            "label": "materiel",
            "pattern": "souris sans fils"
        },
        {
            "label": "materiel",
            "pattern": "SOURIS SANS FILS"
        },
        {
            "label": "materiel",
            "pattern": "Switch 8 ports"
        },
        {
            "label": "materiel",
            "pattern": "SWITCH D-LINK 4 PORT"
        },
        {
            "label": "materiel",
            "pattern": "Switch R\u00e9seau 5 Ports"
        },
        {
            "label": "materiel",
            "pattern": "Tapis pour Souris"
        },
        {
            "label": "materiel",
            "pattern": "Tapis pour souris"
        },
        {
            "label": "materiel",
            "pattern": "test1"
        },
        {
            "label": "materiel",
            "pattern": "Ticket clavier"
        },
        {
            "label": "materiel",
            "pattern": "Tournevis Americain grand"
        },
        {
            "label": "materiel",
            "pattern": "Tournevis Americain moyen"
        },
        {
            "label": "materiel",
            "pattern": "Tournevis Americain petit"
        },
        {
            "label": "materiel",
            "pattern": "Tournevis En etoile grand"
        },
        {
            "label": "materiel",
            "pattern": "Tournevis En etoile moyen"
        },
        {
            "label": "materiel",
            "pattern": "Tournevis en etoile petit"
        },
        {
            "label": "materiel",
            "pattern": "Tournevis Fran\u00e7ais grand"
        },
        {
            "label": "materiel",
            "pattern": "Tournevis Fran\u00e7ais moyen"
        },
        {
            "label": "materiel",
            "pattern": "Tournevis Fran\u00e7ais petit"
        },
        {
            "label": "materiel",
            "pattern": "Ventilateur LGA 1150"
        },
        {
            "label": "materiel",
            "pattern": "Ventilateur LGA 1150"
        },
        {
            "label": "materiel",
            "pattern": "Ventillateur LGA 775"
        },
        {
            "label": "materiel",
            "pattern": "Ventillateur LGA1150"
        },
        {
            "label": "materiel",
            "pattern": "ventillateur LGA1150"
        },
        {
            "label": "materiel",
            "pattern": "Ventillateur LGA1155"
        },
        {
            "label": "materiel",
            "pattern": "ventilo utils\u00e9 1150"
        }
    ]
}